^D:\PROGRAM FILES\VISUAL STUDIO PROJECTS\ELEKSUNIVERSITYPROJECTS\TASK_7\TASK_7\SOURCE.CPP
D:\PROGRAM FILES\VISUAL STUDIO PROJECTS\ELEKSUNIVERSITYPROJECTS\TASK_7\TASK_7\DEBUG\VC140.PDB
D:\PROGRAM FILES\VISUAL STUDIO PROJECTS\ELEKSUNIVERSITYPROJECTS\TASK_7\TASK_7\DEBUG\VC140.IDB
D:\PROGRAM FILES\VISUAL STUDIO PROJECTS\ELEKSUNIVERSITYPROJECTS\TASK_7\TASK_7\DEBUG\SOURCE.OBJ
^D:\PROGRAM FILES\VISUAL STUDIO PROJECTS\ELEKSUNIVERSITYPROJECTS\TASK_7\TASK_7\CONTACT.CPP|D:\PROGRAM FILES\VISUAL STUDIO PROJECTS\ELEKSUNIVERSITYPROJECTS\TASK_7\TASK_7\ORGANIZER.CPP
D:\PROGRAM FILES\VISUAL STUDIO PROJECTS\ELEKSUNIVERSITYPROJECTS\TASK_7\TASK_7\DEBUG\VC140.PDB
D:\PROGRAM FILES\VISUAL STUDIO PROJECTS\ELEKSUNIVERSITYPROJECTS\TASK_7\TASK_7\DEBUG\VC140.IDB
D:\PROGRAM FILES\VISUAL STUDIO PROJECTS\ELEKSUNIVERSITYPROJECTS\TASK_7\TASK_7\DEBUG\CONTACT.OBJ
^D:\PROGRAM FILES\VISUAL STUDIO PROJECTS\ELEKSUNIVERSITYPROJECTS\TASK_7\TASK_7\CONTACT.CPP
D:\PROGRAM FILES\VISUAL STUDIO PROJECTS\ELEKSUNIVERSITYPROJECTS\TASK_7\TASK_7\DEBUG\VC140.PDB
^D:\PROGRAM FILES\VISUAL STUDIO PROJECTS\ELEKSUNIVERSITYPROJECTS\TASK_7\TASK_7\ORGANIZER.CPP
D:\PROGRAM FILES\VISUAL STUDIO PROJECTS\ELEKSUNIVERSITYPROJECTS\TASK_7\TASK_7\DEBUG\VC140.PDB
D:\PROGRAM FILES\VISUAL STUDIO PROJECTS\ELEKSUNIVERSITYPROJECTS\TASK_7\TASK_7\DEBUG\VC140.IDB
D:\PROGRAM FILES\VISUAL STUDIO PROJECTS\ELEKSUNIVERSITYPROJECTS\TASK_7\TASK_7\DEBUG\ORGANIZER.OBJ
^D:\PROGRAM FILES\VISUAL STUDIO PROJECTS\ELEKSUNIVERSITYPROJECTS\TASK_7\TASK_7\ORGANIZER.CPP|D:\PROGRAM FILES\VISUAL STUDIO PROJECTS\ELEKSUNIVERSITYPROJECTS\TASK_7\TASK_7\SOURCE.CPP
D:\PROGRAM FILES\VISUAL STUDIO PROJECTS\ELEKSUNIVERSITYPROJECTS\TASK_7\TASK_7\DEBUG\VC140.PDB
D:\PROGRAM FILES\VISUAL STUDIO PROJECTS\ELEKSUNIVERSITYPROJECTS\TASK_7\TASK_7\DEBUG\VC140.IDB
D:\PROGRAM FILES\VISUAL STUDIO PROJECTS\ELEKSUNIVERSITYPROJECTS\TASK_7\TASK_7\DEBUG\ORGANIZER.OBJ
D:\PROGRAM FILES\VISUAL STUDIO PROJECTS\ELEKSUNIVERSITYPROJECTS\TASK_7\TASK_7\DEBUG\SOURCE.OBJ
^D:\PROGRAM FILES\VISUAL STUDIO PROJECTS\ELEKSUNIVERSITYPROJECTS\TASK_7\TASK_7\SOURCE.CPP|D:\PROGRAM FILES\VISUAL STUDIO PROJECTS\ELEKSUNIVERSITYPROJECTS\TASK_7\TASK_7\WAYS_TO_SPLIT.CPP
D:\PROGRAM FILES\VISUAL STUDIO PROJECTS\ELEKSUNIVERSITYPROJECTS\TASK_7\TASK_7\DEBUG\VC140.PDB
D:\PROGRAM FILES\VISUAL STUDIO PROJECTS\ELEKSUNIVERSITYPROJECTS\TASK_7\TASK_7\DEBUG\VC140.IDB
D:\PROGRAM FILES\VISUAL STUDIO PROJECTS\ELEKSUNIVERSITYPROJECTS\TASK_7\TASK_7\DEBUG\SOURCE.OBJ
^D:\PROGRAM FILES\VISUAL STUDIO PROJECTS\ELEKSUNIVERSITYPROJECTS\TASK_7\TASK_7\WAYS_TO_SPLIT.CPP
D:\PROGRAM FILES\VISUAL STUDIO PROJECTS\ELEKSUNIVERSITYPROJECTS\TASK_7\TASK_7\DEBUG\VC140.PDB
D:\PROGRAM FILES\VISUAL STUDIO PROJECTS\ELEKSUNIVERSITYPROJECTS\TASK_7\TASK_7\DEBUG\VC140.IDB
D:\PROGRAM FILES\VISUAL STUDIO PROJECTS\ELEKSUNIVERSITYPROJECTS\TASK_7\TASK_7\DEBUG\WAYS_TO_SPLIT.OBJ
